AOC1/aoc2026s2-risc-v-alu-tb-group-8/tests/alu_tb.vcd
$date
	Thu Sep 18 18:08:31 2025
$end
$version
	Icarus Verilog
$end
$timescale
	1ns
$end
$scope module alu_tb $end
$var wire 32 ! res [31:0] $end
$var reg 32 " instr [31:0] $end
$var reg 32 # op1 [31:0] $end
$var reg 32 $ op2 [31:0] $end
$var reg 32 % res_exp [31:0] $end
$var integer 32 & i [31:0] $end
$scope module dut $end
$var wire 32 ' instr [31:0] $end
$var wire 32 ( op1 [31:0] $end
$var wire 32 ) op2 [31:0] $end
$var wire 32 * shifter_in [31:0] $end
$var wire 32 + shifter [31:0] $end
$var wire 5 , shamt [4:0] $end
$var wire 32 - leftshift [31:0] $end
$var wire 1 . isALUreg $end
$var wire 7 / funct7 [6:0] $end
$var wire 3 0 funct3 [2:0] $end
$var wire 32 1 aluPlus [31:0] $end
$var wire 33 2 aluMinus [32:0] $end
$var wire 1 3 LTU $end
$var wire 1 4 LT $end
$var wire 1 5 EQ $end
$var reg 32 6 res [31:0] $end
$scope function flip32 $end
$var reg 32 7 x [31:0] $end
$upscope $end
$upscope $end
$upscope $end
$enddefinitions $end
$comment Show the parameter values. $end
$dumpall
$end
#0
$dumpvars
b11 7
b11001010111111101011101010111110 6
05
14
03
b11001010111111010100010101000010 2
b11001010111111101011101010111110 1
b0 0
b0 /
1.
b11000000000000000000000000000000 -
b11110 ,
b11 +
b11001010111111100000000000000000 *
b1011101010111110 )
b11001010111111100000000000000000 (
b1110000111000001100110011 '
b0 &
b11001010111111101011101010111110 %
b1011101010111110 $
b11001010111111100000000000000000 #
b1110000111000001100110011 "
b11001010111111101011101010111110 !
$end
#10
b11111111111111111111111111111111 -
b11111111111111111111111111111111 7
b11111111111111111111111111111111 +
b11001010111111010100010101000010 !
b11001010111111010100010101000010 6
b100000 /
b11001010111111010100010101000010 %
b1000000011100110000001100110011 "
b1000000011100110000001100110011 '
b1 &
#20
04
b1111101010111010111111101010011 -
b0 ,
b11001010111111101011101010111110 +
b1011101010111110 !
b1011101010111110 6
b11001010111111101011101010111110 7
b11001010111111101011101010111110 *
b1011101010111110 %
b11001010111111100000000000000000 $
b11001010111111100000000000000000 )
b10010101111111001011101010111110 1
b1011101010111110 2
b11001010111111101011101010111110 #
b11001010111111101011101010111110 (
b10 &
#30
14
b11101010111010111111101010011000 -
b11001010111111101011101010111 7
b11001010111111101011101010111 +
b11 ,
b11001010111111101011101010111011 2
b11001010111111101011101011000001 !
b11001010111111101011101011000001 6
b0 /
0.
b11001010111111101011101011000001 %
b11001010111111101011101011000001 1
b11 $
b11 )
b1100111000001100010011 "
b1100111000001100010011 '
b11 &
#40
b111111101010011000 -
b11001010111111100000000000000 +
b11001010111111100000000000000011 !
b11001010111111100000000000000011 6
b11001010111111100000000000000 7
b11001010111111100000000000000000 *
b11001010111111100000000000000011 %
b11001010111111100000000000000011 1
b11001010111111011111111111111101 2
b11001010111111100000000000000000 #
b11001010111111100000000000000000 (
b100 &
#50
b111111101010011 -
b11001010111111100000000000000000 7
b11001010111111100000000000000000 +
b0 ,
b11001010101111100000000000000000 2
b11001010111111100000000000000000 !
b11001010111111100000000000000000 6
b110 0
1.
b11001010111111100000000000000000 %
b11001011001111100000000000000000 1
b10000000000000000000000 $
b10000000000000000000000 )
b1110000111110001100110011 "
b1110000111110001100110011 '
b101 &
#60
b11000000000000000000000000000000 -
b11 7
b11110 ,
b11 +
b11001010111111010100010101000010 2
b11001010111111101011101010111110 !
b11001010111111101011101010111110 6
b11001010111111101011101010111110 %
b11001010111111101011101010111110 1
b1011101010111110 $
b1011101010111110 )
b110 &
#70
b111111101010011000 -
b11001010111111100000000000000 7
b11001010111111100000000000000 +
b11 ,
b11001010111111011111111111111101 2
b11001010111111100000000000000011 !
b11001010111111100000000000000011 6
0.
b11001010111111100000000000000011 %
b11001010111111100000000000000011 1
b11 $
b11 )
b1100111110001100010011 "
b1100111110001100010011 '
b111 &
#80
b111111101010011 -
b11001010111111100000000000000000 7
b11001010111111100000000000000000 +
b0 ,
b11001010101111100000000000000000 2
b11001010101111100000000000000000 !
b11001010101111100000000000000000 6
b100 0
1.
b11001010101111100000000000000000 %
b11001011001111100000000000000000 1
b10000000000000000000000 $
b10000000000000000000000 )
b1110000111100001100110011 "
b1110000111100001100110011 '
b1000 &
#90
b11000000000000000000000000000000 -
b11 7
b11110 ,
b11 +
b11001010111111010100010101000010 2
b11001010111111101011101010111110 !
b11001010111111101011101010111110 6
b11001010111111101011101010111110 %
b11001010111111101011101010111110 1
b1011101010111110 $
b1011101010111110 )
b1001 &
#100
b111111101010011000 -
b11001010111111100000000000000 7
b11001010111111100000000000000 +
b11 ,
b11001010111111011111111111111101 2
b11001010111111100000000000000011 !
b11001010111111100000000000000011 6
0.
b11001010111111100000000000000011 %
b11001010111111100000000000000011 1
b11 $
b11 )
b1100111100001100010011 "
b1100111100001100010011 '
b1010 &
#110
b11001010111111100000000000000000 -
b111111101010011 7
b111111101010011 +
b111111101010011 *
b0 ,
b11001010101111100000000000000000 2
b11001010111111100000000000000000 !
b11001010111111100000000000000000 6
b1 0
1.
b11001010111111100000000000000000 %
b11001011001111100000000000000000 1
b10000000000000000000000 $
b10000000000000000000000 )
b1110100111001001100110011 "
b1110100111001001100110011 '
b1011 &
#120
b10101111111000000000000000000000 !
b10101111111000000000000000000000 6
b10101111111000000000000000000000 -
b11111110101 7
b100 ,
b11111110101 +
b11001010111111011111111111111100 2
b10101111111000000000000000000000 %
b11001010111111100000000000000100 1
b100 $
b100 )
b1100 &
#130
b101011111110000000000000000000 !
b101011111110000000000000000000 6
b101011111110000000000000000000 -
b1111111010100 7
b1111111010100 +
b10 ,
b11001010111111011111111111111110 2
0.
b101011111110000000000000000000 %
b11001010111111100000000000000010 1
b10 $
b10 )
b1000111001001100010011 "
b1000111001001100010011 '
b1101 &
#140
b111111101010011 -
b11001010111111100000000000000000 7
b11001010111111100000000000000000 +
b11001010111111100000000000000000 *
b0 ,
b11001010111111011110100000000000 2
b11001010111111100000000000000000 !
b11001010111111100000000000000000 6
b101 0
1.
b11001010111111100000000000000000 %
b11001010111111100001100000000000 1
b1100000000000 $
b1100000000000 )
b1110100111101001100110011 "
b1110100111101001100110011 '
b1110 &
#150
b1111111010100110000 -
b1100101011111110000000000000 7
b1100101011111110000000000000 !
b1100101011111110000000000000 6
b100 ,
b1100101011111110000000000000 +
b11001010111111011111111111111100 2
b1100101011111110000000000000 %
b11001010111111100000000000000100 1
b100 $
b100 )
b1111 &
#160
b11111110101001100000000 -
b110010101111111000000000 7
b110010101111111000000000 !
b110010101111111000000000 6
b110010101111111000000000 +
b1000 ,
b11001010111111011111111111111000 2
0.
b110010101111111000000000 %
b11001010111111100000000000001000 1
b1000 $
b1000 )
b100000111101001100010011 "
b100000111101001100010011 '
b10000 &
#170
b111111101010011 -
b11001010111111100000000000000000 7
b11001010111111100000000000000000 !
b11001010111111100000000000000000 6
b11001010111111100000000000000000 +
b0 ,
b11001010111111100000000000000000 2
b100000 /
1.
b11001010111111100000000000000000 %
b11001010111111100000000000000000 1
b0 $
b0 )
b1000001110100111101001100110011 "
b1000001110100111101001100110011 '
b10001 &
#180
b1111111010100111111 -
b11111100101011111110000000000000 7
b11111100101011111110000000000000 !
b11111100101011111110000000000000 6
b100 ,
b11111100101011111110000000000000 +
b11001010111111011111111111111100 2
b11111100101011111110000000000000 %
b11001010111111100000000000000100 1
b100 $
b100 )
b10010 &
#190
b11111110101001111111111 -
b11111111110010101111111000000000 7
b11111111110010101111111000000000 !
b11111111110010101111111000000000 6
b11111111110010101111111000000000 +
b1000 ,
b11001010111111011111101111111000 2
0.
b11111111110010101111111000000000 %
b11001010111111100000010000001000 1
b10000001000 $
b10000001000 )
b1000000100000111101001100010011 "
b1000000100000111101001100010011 '
b10011 &
#200
b1111111010100110 -
b1100101011111110000000000000000 7
b1100101011111110000000000000000 +
b1 ,
b11001010111111011111111111111111 2
b11001010111111100000000000000001 !
b11001010111111100000000000000001 6
b0 0
b0 /
b11001010111111100000000000000001 %
b11001010111111100000000000000001 1
b1 $
b1 )
b100000000000001110011 "
b100000000000001110011 '
b10100 &
#210
b10101 &
